\relax 
\providecommand\hyper@newdestlabel[2]{}
\providecommand\HyperFirstAtBeginDocument{\AtBeginDocument}
\HyperFirstAtBeginDocument{\ifx\hyper@anchor\@undefined
\global\let\oldcontentsline\contentsline
\gdef\contentsline#1#2#3#4{\oldcontentsline{#1}{#2}{#3}}
\global\let\oldnewlabel\newlabel
\gdef\newlabel#1#2{\newlabelxx{#1}#2}
\gdef\newlabelxx#1#2#3#4#5#6{\oldnewlabel{#1}{{#2}{#3}}}
\AtEndDocument{\ifx\hyper@anchor\@undefined
\let\contentsline\oldcontentsline
\let\newlabel\oldnewlabel
\fi}
\fi}
\global\let\hyper@last\relax 
\gdef\HyperFirstAtBeginDocument#1{#1}
\providecommand\HyField@AuxAddToFields[1]{}
\providecommand\HyField@AuxAddToCoFields[2]{}
\pgfsyspdfmark {pgfid3}{239206}{18646798}
\pgfsyspdfmark {pgfid4}{478412}{18646798}
\pgfsyspdfmark {pgfid5}{717618}{18646798}
\pgfsyspdfmark {pgfid6}{956824}{18646798}
\@writefile{nav}{\headcommand {\slideentry {0}{0}{1}{1/1}{}{0}}}
\@writefile{nav}{\headcommand {\beamer@framepages {1}{1}}}
\pgfsyspdfmark {pgfid13}{239206}{18646798}
\pgfsyspdfmark {pgfid14}{478412}{18646798}
\pgfsyspdfmark {pgfid15}{717618}{18646798}
\@writefile{nav}{\headcommand {\slideentry {0}{0}{2}{2/2}{}{0}}}
\@writefile{nav}{\headcommand {\beamer@framepages {2}{2}}}
\pgfsyspdfmark {pgfid22}{239206}{18646798}
\pgfsyspdfmark {pgfid23}{478412}{18646798}
\pgfsyspdfmark {pgfid24}{717618}{18646798}
\@writefile{nav}{\headcommand {\slideentry {0}{0}{3}{3/3}{}{0}}}
\@writefile{nav}{\headcommand {\beamer@framepages {3}{3}}}
\pgfsyspdfmark {pgfid31}{239206}{18646798}
\pgfsyspdfmark {pgfid32}{478412}{18646798}
\pgfsyspdfmark {pgfid33}{717618}{18646798}
\@writefile{nav}{\headcommand {\slideentry {0}{0}{4}{4/4}{}{0}}}
\@writefile{nav}{\headcommand {\beamer@framepages {4}{4}}}
\pgfsyspdfmark {pgfid40}{239206}{18646798}
\pgfsyspdfmark {pgfid41}{478412}{18646798}
\pgfsyspdfmark {pgfid42}{717618}{18646798}
\pgfsyspdfmark {pgfid49}{239206}{18646798}
\pgfsyspdfmark {pgfid50}{478412}{18646798}
\pgfsyspdfmark {pgfid51}{717618}{18646798}
\pgfsyspdfmark {pgfid58}{239206}{18646798}
\pgfsyspdfmark {pgfid59}{478412}{18646798}
\pgfsyspdfmark {pgfid60}{717618}{18646798}
\@writefile{nav}{\headcommand {\slideentry {0}{0}{5}{5/7}{}{0}}}
\@writefile{nav}{\headcommand {\beamer@framepages {5}{7}}}
\pgfsyspdfmark {pgfid67}{239206}{18646798}
\pgfsyspdfmark {pgfid68}{478412}{18646798}
\pgfsyspdfmark {pgfid69}{717618}{18646798}
\pgfsyspdfmark {pgfid76}{239206}{18646798}
\pgfsyspdfmark {pgfid77}{478412}{18646798}
\pgfsyspdfmark {pgfid78}{717618}{18646798}
\@writefile{nav}{\headcommand {\slideentry {0}{0}{6}{8/9}{}{0}}}
\@writefile{nav}{\headcommand {\beamer@framepages {8}{9}}}
\pgfsyspdfmark {pgfid85}{239206}{18646798}
\pgfsyspdfmark {pgfid86}{478412}{18646798}
\pgfsyspdfmark {pgfid87}{717618}{18646798}
\pgfsyspdfmark {pgfid94}{239206}{18646798}
\pgfsyspdfmark {pgfid95}{478412}{18646798}
\pgfsyspdfmark {pgfid96}{717618}{18646798}
\@writefile{nav}{\headcommand {\slideentry {0}{0}{7}{10/11}{}{0}}}
\@writefile{nav}{\headcommand {\beamer@framepages {10}{11}}}
\pgfsyspdfmark {pgfid103}{239206}{18646798}
\pgfsyspdfmark {pgfid104}{478412}{18646798}
\pgfsyspdfmark {pgfid105}{717618}{18646798}
\pgfsyspdfmark {pgfid112}{239206}{18646798}
\pgfsyspdfmark {pgfid113}{478412}{18646798}
\pgfsyspdfmark {pgfid114}{717618}{18646798}
\pgfsyspdfmark {pgfid121}{239206}{18646798}
\pgfsyspdfmark {pgfid122}{478412}{18646798}
\pgfsyspdfmark {pgfid123}{717618}{18646798}
\@writefile{nav}{\headcommand {\slideentry {0}{0}{8}{12/14}{}{0}}}
\@writefile{nav}{\headcommand {\beamer@framepages {12}{14}}}
\pgfsyspdfmark {pgfid130}{239206}{18646798}
\pgfsyspdfmark {pgfid131}{478412}{18646798}
\pgfsyspdfmark {pgfid132}{717618}{18646798}
\@writefile{nav}{\headcommand {\slideentry {0}{0}{9}{15/15}{}{0}}}
\@writefile{nav}{\headcommand {\beamer@framepages {15}{15}}}
\@writefile{nav}{\headcommand {\beamer@partpages {1}{15}}}
\@writefile{nav}{\headcommand {\beamer@subsectionpages {1}{15}}}
\@writefile{nav}{\headcommand {\beamer@sectionpages {1}{15}}}
\@writefile{nav}{\headcommand {\beamer@documentpages {15}}}
\@writefile{nav}{\headcommand {\gdef \inserttotalframenumber {9}}}
